NonPipelined/Single_cyclemicroprocessor.sim/sim_1/behav/xsim/wave.vcd
$date
   Sun Jun 29 02:16:10 2025
$end

$version
  2023.2
  $dumpfile ("wave.vcd") 
$end

$timescale
  1ps
$end

$scope module ALU_Instructions $end
$var reg 1 ! CLK $end
$var wire 8 " result [7:0] $end
$var integer 32 # i [31:0] $end
$scope module uut $end
$var wire 1 $ CLK $end
$var wire 8 " result [7:0] $end
$var wire 1 % pcsrc $end
$var wire 8 & pcnext [7:0] $end
$var wire 8 ' pc [7:0] $end
$var wire 16 ( instr [15:0] $end
$var wire 8 ) SrcA [7:0] $end
$var wire 8 * SrcB [7:0] $end
$var wire 1 + Zero $end
$var wire 8 , ALUResult [7:0] $end
$var wire 4 - ALUControl [3:0] $end
$var wire 1 . ALUSrc $end
$var wire 1 / ResultSrc $end
$var wire 8 0 pcplus1 [7:0] $end
$var wire 8 1 pctarget [7:0] $end
$var wire 3 2 a1 [2:0] $end
$var wire 3 3 a2 [2:0] $end
$var wire 3 4 a3 [2:0] $end
$var wire 4 5 opcode [3:0] $end
$var wire 3 6 funct [2:0] $end
$var wire 8 7 SrcB_reg [7:0] $end
$var wire 8 8 wrtdata [7:0] $end
$var wire 8 9 read_data [7:0] $end
$var wire 1 : MemWrite $end
$var wire 1 ; regwrite $end
$var wire 8 < ImmExt [7:0] $end
$scope module p0 $end
$var wire 1 $ clk $end
$var wire 8 & pcnext [7:0] $end
$var reg 8 = pc [7:0] $end
$upscope $end
$scope module i0 $end
$var wire 8 ' address [7:0] $end
$var reg 16 > instruction [15:0] $end
$var integer 32 ? i [31:0] $end
$upscope $end
$scope module e0 $end
$var wire 3 4 in0 [2:0] $end
$var wire 8 < ImmExt [7:0] $end
$upscope $end
$scope module c0 $end
$var wire 4 5 opcode [3:0] $end
$var wire 3 6 funct [2:0] $end
$var wire 1 + Zero $end
$var reg 1 @ RegWrite $end
$var reg 1 A ALUSrc $end
$var reg 1 B MemWrite $end
$var reg 4 C ALUControl [3:0] $end
$var reg 1 D ResultSrc $end
$var reg 1 E PCSrc $end
$upscope $end
$scope module r0 $end
$var wire 1 $ clk $end
$var wire 1 ; write $end
$var wire 3 3 srcreg1 [2:0] $end
$var wire 3 4 srcreg2 [2:0] $end
$var wire 3 2 destreg [2:0] $end
$var wire 8 8 wrtData [7:0] $end
$var wire 8 ) rdata1 [7:0] $end
$var wire 8 7 rdata2 [7:0] $end
$scope begin Block220_6 $end
$var integer 32 F i [31:0] $end
$upscope $end
$upscope $end
$scope module alu $end
$var wire 8 7 in0 [7:0] $end
$var wire 8 < in1 [7:0] $end
$var wire 1 . select $end
$var wire 8 * out0 [7:0] $end
$upscope $end
$scope module a0 $end
$var wire 8 ) SrcA [7:0] $end
$var wire 8 * SrcB [7:0] $end
$var wire 4 - ALUControl [3:0] $end
$var reg 8 G ALUResult [7:0] $end
$var reg 1 H Zero $end
$upscope $end
$scope module d0 $end
$var wire 1 $ CLK $end
$var wire 1 : MemWrite $end
$var wire 8 , ALUResult [7:0] $end
$var wire 8 7 WriteData [7:0] $end
$var reg 8 I ReadData [7:0] $end
$var integer 32 J i [31:0] $end
$upscope $end
$scope module read $end
$var wire 8 , in0 [7:0] $end
$var wire 8 9 in1 [7:0] $end
$var wire 1 / select $end
$var wire 8 8 out0 [7:0] $end
$upscope $end
$upscope $end
$upscope $end
$enddefinitions $end

#0
$dumpvars
0!
b10 "
bx #
0$
0%
b1 &
b0 '
b1000001000010 (
b0 )
b10 *
0+
b10 ,
b1000 -
1.
0/
bz 0
bz 1
b1 2
b0 3
b10 4
b1 5
b0 6
b110 7
b10 8
b0 9
0:
1;
b10 <
b0 =
b1000001000010 >
b1000000000 ?
1@
1A
0B
b1000 C
0D
0E
b1000 F
b10 G
0H
b0 I
b100000000 J
$end

#5000
1!
1$
b10 &
b1 '
b1000010000010 (
b10 2
b1 =
b1000010000010 >

#10000
0!
b0 #
0$

#15000
1!
b100 "
1$
b11 &
b10 '
b11001010 (
b10 )
b100 ,
0.
b11 2
b1 3
b0 5
b10 7
b100 8
b10 =
b11001010 >
1@
0A
b1000 C
b100 G

#20000
0!
0$

#25000
1!
b10 "
1$
b100 &
b11 '
b1100011001 (
b100 )
b10 ,
b1001 -
b100 2
b11 3
b1 4
b1 6
b10 8
b1 <
b11 =
b1100011001 >
1@
b1001 C
b10 G

#27000
b1 #

#30000
0!
0$

#35000
1!
b10 "
1$
b101 &
b100 '
b100110001010 (
b10 )
0+
b10 ,
b1100 -
b110 2
b1 3
b10 4
b100 6
b10 8
b10 <
b100 =
b100110001010 >
1@
b1100 C
b10 G
0H

#40000
0!
0$

#45000
1!
b111 "
1$
b110 &
b101 '
b110110101010 (
b101 )
0+
b111 ,
b1111 -
b101 3
b110 6
b111 8
b101 =
b110110101010 >
1@
b1111 C
b111 G
0H

#47000
b10 #

#50000
0!
0$

#55000
1!
b0 "
1$
b111 &
b110 '
b110111001010 (
b10 )
1+
b0 ,
b111 2
b1 3
b0 8
b110 =
b110111001010 >
1@
b1111 C
b0 G
1H

#60000
0!
0$

#65000
1!
b11111101 "
1$
b1000 &
b111 '
b111101001000 (
b0 *
0+
b11111101 ,
b1110 -
b101 2
b0 4
b111 6
b0 7
b11111101 8
b0 <
b111 =
b111101001000 >
1@
b1110 C
b11111101 G
0H

#67000
b11 #

#70000
0!
0$

#75000
1!
b100 "
1$
b1001 &
b1000 '
b10110001010 (
b10 *
b100 ,
b1010 -
b110 2
b10 4
b10 6
b10 7
b100 8
b10 <
b1000 =
b10110001010 >
1@
b1010 C
b100 G

#80000
0!
0$

#85000
1!
b1 "
1$
b1010 &
b1001 '
b11111001010 (
b1 ,
b1011 -
b111 2
b11 6
b1 8
b1001 =
b11111001010 >
1@
b1011 C
b1 G

#87000
b100 #

#90000
0!
0$

#95000
1!
b100 "
1$
b1011 &
b1010 '
b111000100001000 (
b0 *
0+
b100 ,
b111 -
b100 2
b0 4
b111 5
b0 6
b0 7
b100 8
b0 <
b1010 =
b111000100001000 >
1@
b111 C
b100 G
0H

#100000
0!
0$

#105000
1!
b1 "
1$
b1100 &
b1011 '
b110000100001000 (
b1 ,
b110 -
b110 5
b1 8
b1011 =
b110000100001000 >
1@
b110 C
b1 G

#107000
b101 #

#110000
0!
0$

#115000
1!
b1 "
1$
0%
b1101 &
b1100 '
b101001010000000 (
b0 )
0+
b1 ,
b101 -
b10 2
b0 3
b101 5
b1 6
b1 8
0;
b1100 =
b101001010000000 >
0@
b101 C
0E
b1 G
0H

#120000
0!
0$

#125000
1!
b0 "
1$
1%
b10 &
b1101 '
b100000000000010 (
b10 *
1+
b0 ,
b0 -
b0 2
b10 4
b100 5
b0 6
b10 7
b0 8
b10 <
b1101 =
b100000000000010 >
b0 C
1E
b0 G
1H

#127000
b110 #

#130000
0!
0$

#135000
1!
b100 "
1$
0%
b11 &
b10 '
b11001010 (
b10 )
0+
b100 ,
b1000 -
b11 2
b1 3
b0 5
b100 8
1;
b10 =
b11001010 >
1@
b1000 C
0E
b100 G
0H

#140000
0!
0$

#145000
1!
b10 "
1$
b100 &
b11 '
b1100011001 (
b100 )
b10 ,
b1001 -
b100 2
b11 3
b1 4
b1 6
b10 8
b1 <
b11 =
b1100011001 >
1@
b1001 C
b10 G

#147000
b111 #

#150000
0!
0$

#155000
1!
b10 "
1$
b101 &
b100 '
b100110001010 (
b10 )
0+
b10 ,
b1100 -
b110 2
b1 3
b10 4
b100 6
b10 8
b10 <
b100 =
b100110001010 >
1@
b1100 C
b10 G
0H

#160000
0!
0$

#165000
1!
b11111111 "
1$
b110 &
b101 '
b110110101010 (
b11111101 )
0+
b11111111 ,
b1111 -
b101 3
b110 6
b11111111 8
b101 =
b110110101010 >
1@
b1111 C
b11111111 G
0H

#167000
b1000 #

#170000
0!
0$

#175000
1!
b0 "
1$
b111 &
b110 '
b110111001010 (
b10 )
1+
b0 ,
b111 2
b1 3
b0 8
b110 =
b110111001010 >
1@
b1111 C
b0 G
1H

#180000
0!
0$

#185000
1!
b11111101 "
1$
b1000 &
b111 '
b111101001000 (
b0 *
0+
b11111101 ,
b1110 -
b101 2
b0 4
b111 6
b0 7
b11111101 8
b0 <
b111 =
b111101001000 >
1@
b1110 C
b11111101 G
0H

#187000
b1001 #

#190000
0!
0$

#195000
1!
b100 "
1$
b1001 &
b1000 '
b10110001010 (
b10 *
b100 ,
b1010 -
b110 2
b10 4
b10 6
b10 7
b100 8
b10 <
b1000 =
b10110001010 >
1@
b1010 C
b100 G

#200000
0!
0$

#205000
1!
b1 "
1$
b1010 &
b1001 '
b11111001010 (
b1 ,
b1011 -
b111 2
b11 6
b1 8
b1001 =
b11111001010 >
1@
b1011 C
b1 G

#207000
b1010 #

#210000
0!
0$

#215000
1!
b100 "
1$
b1011 &
b1010 '
b111000100001000 (
b0 *
0+
b100 ,
b111 -
b100 2
b0 4
b111 5
b0 6
b0 7
b100 8
b0 <
b1010 =
b111000100001000 >
1@
b111 C
b100 G
0H

#220000
0!
0$

#225000
1!
b1 "
1$
b1100 &
b1011 '
b110000100001000 (
b1 ,
b110 -
b110 5
b1 8
b1011 =
b110000100001000 >
1@
b110 C
b1 G

#227000
b1011 #

#230000
0!
0$

#235000
1!
b1 "
1$
0%
b1101 &
b1100 '
b101001010000000 (
b0 )
0+
b1 ,
b101 -
b10 2
b0 3
b101 5
b1 6
b1 8
0;
b1100 =
b101001010000000 >
0@
b101 C
0E
b1 G
0H

#240000
0!
0$

#245000
1!
b0 "
1$
1%
b10 &
b1101 '
b100000000000010 (
b10 *
1+
b0 ,
b0 -
b0 2
b10 4
b100 5
b0 6
b10 7
b0 8
b10 <
b1101 =
b100000000000010 >
b0 C
1E
b0 G
1H

#247000
b1100 #

#250000
0!
0$

#255000
1!
b100 "
1$
0%
b11 &
b10 '
b11001010 (
b10 )
0+
b100 ,
b1000 -
b11 2
b1 3
b0 5
b100 8
1;
b10 =
b11001010 >
1@
b1000 C
0E
b100 G
0H

#260000
0!
0$

#265000
1!
b10 "
1$
b100 &
b11 '
b1100011001 (
b100 )
b10 ,
b1001 -
b100 2
b11 3
b1 4
b1 6
b10 8
b1 <
b11 =
b1100011001 >
1@
b1001 C
b10 G

#267000
b1101 #

#270000
0!
0$

#275000
1!
b10 "
1$
b101 &
b100 '
b100110001010 (
b10 )
0+
b10 ,
b1100 -
b110 2
b1 3
b10 4
b100 6
b10 8
b10 <
b100 =
b100110001010 >
1@
b1100 C
b10 G
0H

#280000
0!
0$

#285000
1!
b11111111 "
1$
b110 &
b101 '
b110110101010 (
b11111101 )
0+
b11111111 ,
b1111 -
b101 3
b110 6
b11111111 8
b101 =
b110110101010 >
1@
b1111 C
b11111111 G
0H

#287000
b1110 #

#290000
0!
0$

#295000
1!
b0 "
1$
b111 &
b110 '
b110111001010 (
b10 )
1+
b0 ,
b111 2
b1 3
b0 8
b110 =
b110111001010 >
1@
b1111 C
b0 G
1H

#300000
0!
0$

#305000
1!
b11111101 "
1$
b1000 &
b111 '
b111101001000 (
b0 *
0+
b11111101 ,
b1110 -
b101 2
b0 4
b111 6
b0 7
b11111101 8
b0 <
b111 =
b111101001000 >
1@
b1110 C
b11111101 G
0H

#310000
0!
0$

#315000
1!
b100 "
1$
b1001 &
b1000 '
b10110001010 (
b10 *
b100 ,
b1010 -
b110 2
b10 4
b10 6
b10 7
b100 8
b10 <
b1000 =
b10110001010 >
1@
b1010 C
b100 G

#320000
0!
0$

#325000
1!
b1 "
1$
b1010 &
b1001 '
b11111001010 (
b1 ,
b1011 -
b111 2
b11 6
b1 8
b1001 =
b11111001010 >
1@
b1011 C
b1 G

#330000
0!
0$

#335000
1!
b100 "
1$
b1011 &
b1010 '
b111000100001000 (
b0 *
0+
b100 ,
b111 -
b100 2
b0 4
b111 5
b0 6
b0 7
b100 8
b0 <
b1010 =
b111000100001000 >
1@
b111 C
b100 G
0H

#340000
0!
0$

#345000
1!
b1 "
1$
b1100 &
b1011 '
b110000100001000 (
b1 ,
b110 -
b110 5
b1 8
b1011 =
b110000100001000 >
1@
b110 C
b1 G

#350000
0!
0$

#355000
1!
b1 "
1$
0%
b1101 &
b1100 '
b101001010000000 (
b0 )
0+
b1 ,
b101 -
b10 2
b0 3
b101 5
b1 6
b1 8
0;
b1100 =
b101001010000000 >
0@
b101 C
0E
b1 G
0H

#360000
0!
0$

#365000
1!
b0 "
1$
1%
b10 &
b1101 '
b100000000000010 (
b10 *
1+
b0 ,
b0 -
b0 2
b10 4
b100 5
b0 6
b10 7
b0 8
b10 <
b1101 =
b100000000000010 >
b0 C
1E
b0 G
1H

#370000
0!
0$

#375000
1!
b100 "
1$
0%
b11 &
b10 '
b11001010 (
b10 )
0+
b100 ,
b1000 -
b11 2
b1 3
b0 5
b100 8
1;
b10 =
b11001010 >
1@
b1000 C
0E
b100 G
0H

#380000
0!
0$

#385000
1!
b10 "
1$
b100 &
b11 '
b1100011001 (
b100 )
b10 ,
b1001 -
b100 2
b11 3
b1 4
b1 6
b10 8
b1 <
b11 =
b1100011001 >
1@
b1001 C
b10 G
